Getting started with SWATfarmR • SWATfarmR
…
There are cases where we want to use the same management practice
sequences (e.g. the same crop rotation) for different HRUs, but we want
to introduce some different operations because of some any HRU
attributes. You might want to use different tillage practices for
different soils, or want to apply contour farming on steeper slopes, or
you for example know that the amounts of fertilizer differ between
regions (which may correspond to routing units or subbasins in your
model setup). Similar to the different managements above you can also
select the operation that should be scheduled for an HRU, based on the
HRUs attributes. Below you can see the hru_attributes table
of a SWATfarmR project. It shows all attributes that
implemented to select operations at the moment.

#> # A tibble: 49 × 9
#>      rtu rtu_name   hru hru_name lu_mgt    soil      slp slp_len hyd_grp
#>    <dbl> <chr>    <dbl> <chr>    <chr>     <chr>   <dbl>   <dbl> <chr>  
#>  1     1 rtu10        1 hru01    agrl4_lum LREW06 0.0309      60 B      
#>  2     1 rtu10        2 hru02    agrl1_lum LREW06 0.0327      60 B      
#>  3     1 rtu10        3 hru03    agrl1_lum LREW10 0.0282      90 D      
#>  4     1 rtu10        4 hru04    agrl1_lum LREW09 0.0215      90 C      
#>  5     1 rtu10        5 hru05    frse_lum  LREW06 0.0432      60 B      
#>  6     1 rtu10        6 hru06    frse_lum  LREW03 0.0386      60 B      
#>  7     1 rtu10        7 hru07    frse_lum  LREW10 0.0321      60 D      
#>  8     1 rtu10        8 hru08    frse_lum  LREW05 0.0460      60 B      
#>  9     1 rtu10        9 hru09    frse_lum  LREW08 0.0582      30 C      
#> 10     1 rtu10       10 hru10    agrl2_lum LREW03 0.0363      60 B      
#> # … with 39 more rows
#> # ℹ Use `print(n = ...)` to see more rows
…
